<svg xmlns="http://www.w3.org/2000/svg" width="24.406" height="24.375" viewBox="0 0 24.406 24.375">
  <defs>
    <style>
      .cls-1 {
        fill: #fff;
        fill-rule: evenodd;
      }
    </style>
  </defs>
  <path class="cls-1" d="M215.078,714.521a1.9,1.9,0,0,0-1.794-1.794,18.846,18.846,0,0,0-9.445,1.891,18.544,18.544,0,0,0-5.415,4.49l-0.057.07-3.575.276a1.888,1.888,0,0,0-1.438.846l-2.438,3.688a1.307,1.307,0,0,0,.89,2.013l3.012,0.466c-0.011.059-.022,0.117-0.032,0.176a1.9,1.9,0,0,0,.532,1.649l4.195,4.195a1.9,1.9,0,0,0,1.341.557,1.873,1.873,0,0,0,.308-0.025l0.176-.031L201.8,736a1.307,1.307,0,0,0,2.013.891l3.688-2.439a1.888,1.888,0,0,0,.846-1.438l0.276-3.574,0.07-.058a18.515,18.515,0,0,0,4.49-5.415,18.835,18.835,0,0,0,1.891-9.445h0Zm-8.361,18.737-3.529,2.333-0.454-2.936a15.991,15.991,0,0,0,4.371-2.081l-0.18,2.329a0.466,0.466,0,0,1-.208.355h0Zm-6.193-1.782-4.195-4.2a0.463,0.463,0,0,1-.132-0.4,12.416,12.416,0,0,1,.558-2.125l6.294,6.294a12.276,12.276,0,0,1-2.123.56,0.46,0.46,0,0,1-.4-0.132h0Zm-5.622-10.6,2.329-.18a16,16,0,0,0-2.081,4.372l-2.935-.455,2.332-3.528A0.466,0.466,0,0,1,194.9,720.88Zm12.879,7.4a16.433,16.433,0,0,1-3.31,2.165l-7.114-7.114a16.669,16.669,0,0,1,2.166-3.31,17.067,17.067,0,0,1,4.973-4.136,17.4,17.4,0,0,1,8.711-1.733,0.469,0.469,0,0,1,.443.444,17.386,17.386,0,0,1-1.733,8.71,17.068,17.068,0,0,1-4.136,4.974h0Zm-0.363-4.322a3.573,3.573,0,1,0-2.528-1.046,3.565,3.565,0,0,0,2.528,1.046h0Zm-1.517-5.09a2.145,2.145,0,1,1-.628,1.516A2.136,2.136,0,0,1,205.9,718.871Zm-14.473,13.943a0.709,0.709,0,0,0,.5-0.21l2.335-2.335a0.715,0.715,0,0,0-1.011-1.011l-2.335,2.335A0.716,0.716,0,0,0,191.428,732.814Zm4.98-1.417a0.716,0.716,0,0,0-1.012,0l-4.488,4.489a0.715,0.715,0,0,0,1.011,1.012l4.489-4.489a0.716,0.716,0,0,0,0-1.012h0Zm1.128,2.14-2.335,2.335a0.715,0.715,0,1,0,1.011,1.011l2.335-2.335A0.715,0.715,0,0,0,197.536,733.537Z" transform="translate(-190.688 -712.719)"/>
</svg>
