<svg xmlns="http://www.w3.org/2000/svg" width="136.594" height="56.219" viewBox="0 0 136.594 56.219">
  <defs>
    <style>
      .cls-1 {
        fill: #5bb9f0;
      }

      .cls-1, .cls-2, .cls-3 {
        fill-rule: evenodd;
      }

      .cls-2, .cls-3 {
        fill: #333;
      }

      .cls-2 {
        stroke: #000;
        stroke-width: 1px;
      }
    </style>
  </defs>
  <path id="КУБ24_copy_21" data-name="КУБ24 copy 21" class="cls-1" d="M281.839,33.12q0-4.466-2.136-6.485t-6.858-2.019h-13.5v5.953h11.7q2.7,0,2.7,2.552v2.125L257.555,46.3v8.08h24.284V48.428H266.774l9.669-6.592q1.168-.806,2.158-1.616a7.852,7.852,0,0,0,3.238-6.251V33.12ZM298.481,54.38h8.094V48.428h0V42.474h0V36.1h-8.094v6.378h-7.645l10.792-17.859h-8.994L281.842,42.474v5.954h16.639V54.38Z" transform="translate(-170.031 -24.625)"/>
  <path id="ФинДиректор" class="cls-2" d="M177.133,77.793h3.041V76.034h0.81a6.171,6.171,0,0,0,2.39-.45,5.589,5.589,0,0,0,1.866-1.242,5.649,5.649,0,0,0,1.215-1.868,6.146,6.146,0,0,0,.434-2.327,6.276,6.276,0,0,0-.424-2.326,5.679,5.679,0,0,0-1.195-1.878,5.526,5.526,0,0,0-1.857-1.261,6.185,6.185,0,0,0-2.429-.459h-0.81v-1.76h-3.041v1.76h-0.81a6.188,6.188,0,0,0-2.429.459,5.526,5.526,0,0,0-1.857,1.261,5.677,5.677,0,0,0-1.194,1.878,6.256,6.256,0,0,0-.425,2.326,6.165,6.165,0,0,0,.434,2.327,5.649,5.649,0,0,0,1.215,1.868,5.589,5.589,0,0,0,1.866,1.242,6.171,6.171,0,0,0,2.39.45h0.81v1.759Zm-0.81-4.2a2.651,2.651,0,0,1-2.123-.813,3.01,3.01,0,0,1-.7-2.042V69.521a3.639,3.639,0,0,1,.168-1.126,2.521,2.521,0,0,1,.5-0.9,2.353,2.353,0,0,1,.869-0.606,3.294,3.294,0,0,1,1.284-.225h0.869v6.923h-0.869Zm3.792,0V66.665h0.869a3.308,3.308,0,0,1,1.274.225,2.335,2.335,0,0,1,.879.606,2.538,2.538,0,0,1,.5.9,3.669,3.669,0,0,1,.168,1.126v1.212a3.006,3.006,0,0,1-.7,2.042,2.651,2.651,0,0,1-2.123.813h-0.869Zm8.829,3.345h2.607l2.883-4.322,1.205-2.191H195.7l-0.257,2.387v4.126h2.864V66.665H195.7l-2.883,4.322-1.2,2.19h-0.059l0.256-2.385V66.665h-2.863V76.933Zm12.087,0h2.923V72.846h3.515v4.088h2.923V66.665h-2.923V70.6h-3.515V66.665h-2.923V76.933Zm11.06,2.934h2.824V76.933h9.579v2.934h2.824V74.292h-2.232V63.282h-9.894v4.342a25.356,25.356,0,0,1-.119,2.639,11.869,11.869,0,0,1-.336,1.9,5.752,5.752,0,0,1-.513,1.3,3.527,3.527,0,0,1-.632.831h-1.5v5.575Zm4.9-5.575V74.234a4.84,4.84,0,0,0,.474-0.888,6.18,6.18,0,0,0,.355-1.25,16.467,16.467,0,0,0,.218-1.716q0.078-.986.078-2.331V65.923h3.97v8.369h-5.095Zm12.225,2.641h2.607l2.884-4.322,1.2-2.191h0.059l-0.257,2.387v4.126h2.864V66.665h-2.607l-2.884,4.322-1.205,2.19h-0.059l0.257-2.385V66.665h-2.864V76.933Zm12.087,3.91h2.923V75.211h0.1a2.552,2.552,0,0,0,.375.773,2.731,2.731,0,0,0,.622.626,2.957,2.957,0,0,0,.82.411,3.153,3.153,0,0,0,.968.145,3.458,3.458,0,0,0,2.982-1.378,6.717,6.717,0,0,0,1.007-4A6.671,6.671,0,0,0,250.09,67.8a3.471,3.471,0,0,0-2.982-1.37,3.029,3.029,0,0,0-1.788.549,2.4,2.4,0,0,0-1,1.407h-0.1V66.665H241.3V80.843Zm3.466-6.425a1.3,1.3,0,0,1-.543-1.1V70.284a1.3,1.3,0,0,1,.543-1.106,2.259,2.259,0,0,1,1.373-.4,1.808,1.808,0,0,1,1.373.576,2.18,2.18,0,0,1,.543,1.555v1.78a2.18,2.18,0,0,1-.543,1.556,1.809,1.809,0,0,1-1.373.576A2.242,2.242,0,0,1,244.767,74.419Zm15.406,2.3a4.626,4.626,0,0,0,1.807-1.255l-1.462-1.8a5.955,5.955,0,0,1-1.066.863,2.752,2.752,0,0,1-1.482.357,2.281,2.281,0,0,1-1.738-.59,2.254,2.254,0,0,1-.553-1.6V72.533h6.656V71.671a7.317,7.317,0,0,0-.266-1.984,4.63,4.63,0,0,0-.85-1.672,4.161,4.161,0,0,0-1.5-1.155,5.168,5.168,0,0,0-2.2-.43,5.3,5.3,0,0,0-2.074.382,4.151,4.151,0,0,0-1.53,1.087,4.637,4.637,0,0,0-.938,1.692,7.808,7.808,0,0,0,.009,4.428,4.531,4.531,0,0,0,.968,1.692,4.333,4.333,0,0,0,1.57,1.076,5.5,5.5,0,0,0,2.114.381A6.766,6.766,0,0,0,260.173,76.716Zm-1.284-7.576a2.492,2.492,0,0,1,.424,1.515v0.177h-3.634V70.674a2.246,2.246,0,0,1,.5-1.534,1.751,1.751,0,0,1,1.392-.578A1.523,1.523,0,0,1,258.889,69.14Zm5.52,7.793h2.923V72.846h1.5l1.462,2.62a3.178,3.178,0,0,0,.967,1.135,2.437,2.437,0,0,0,1.343.333h1.363v-2.25H272.9l-1.166-2.092a1.777,1.777,0,0,0-.523-0.626,1.811,1.811,0,0,0-.622-0.273v-0.1a1.681,1.681,0,0,0,.622-0.313,2.387,2.387,0,0,0,.543-0.723l0.889-1.643h1.046V66.665h-1.2a2.474,2.474,0,0,0-1.353.333,2.894,2.894,0,0,0-.938,1.1l-1.363,2.5h-1.5V66.665h-2.923V76.933Zm13.706,0h2.924V68.914h3V66.665h-8.927v2.249h3v8.019Zm13.836-.137a4.1,4.1,0,0,0,1.521-1.076,4.9,4.9,0,0,0,.957-1.7,7.566,7.566,0,0,0,0-4.459,4.815,4.815,0,0,0-.957-1.691,4.135,4.135,0,0,0-1.521-1.065,5.788,5.788,0,0,0-4.089,0,4.123,4.123,0,0,0-1.52,1.065,4.8,4.8,0,0,0-.958,1.691,7.566,7.566,0,0,0,0,4.459,4.888,4.888,0,0,0,.958,1.7,4.093,4.093,0,0,0,1.52,1.076A5.831,5.831,0,0,0,291.951,76.8Zm-3.387-2.445a2.179,2.179,0,0,1-.474-1.506V70.753a2.183,2.183,0,0,1,.474-1.507,1.976,1.976,0,0,1,2.686,0,2.183,2.183,0,0,1,.474,1.507v2.093a2.179,2.179,0,0,1-.474,1.506A1.976,1.976,0,0,1,288.564,74.352Zm8.275,6.492h2.923V75.211h0.1a2.552,2.552,0,0,0,.375.773,2.712,2.712,0,0,0,.622.626,2.957,2.957,0,0,0,.82.411,3.147,3.147,0,0,0,.967.145,3.459,3.459,0,0,0,2.983-1.378,6.724,6.724,0,0,0,1.007-4,6.678,6.678,0,0,0-1.007-3.989,3.472,3.472,0,0,0-2.983-1.37,3.028,3.028,0,0,0-1.787.549,2.4,2.4,0,0,0-1,1.407h-0.1V66.665h-2.923V80.843Zm3.466-6.425a1.3,1.3,0,0,1-.543-1.1V70.284a1.3,1.3,0,0,1,.543-1.106,2.257,2.257,0,0,1,1.373-.4,1.8,1.8,0,0,1,1.372.576,2.18,2.18,0,0,1,.544,1.555v1.78a2.181,2.181,0,0,1-.544,1.556,1.8,1.8,0,0,1-1.372.576A2.24,2.24,0,0,1,300.305,74.419Z" transform="translate(-170.031 -24.625)"/>
  <path id="КУБ24_copy_21-2" data-name="КУБ24 copy 21" class="cls-3" d="M230.288,30.738h20.2v-5.8H222.668V53.958H245.58q4.446,0,6.456-1.97t2.011-6.323V44.42q0-4.352-2.011-6.324t-6.456-1.968H230.288V30.738Zm16.139,14.927a2.222,2.222,0,0,1-2.54,2.487h-13.6v-6.22h13.6a2.222,2.222,0,0,1,2.54,2.488v1.245ZM220.97,33.959l-6.521,13.779a12.694,12.694,0,0,1-3.556,4.893h0a9.737,9.737,0,0,1-6.054,1.74,23.994,23.994,0,0,1-4.36-.414l-3.08-5.6h6.89a1.715,1.715,0,0,0,1.693-.955,1.929,1.929,0,0,0,.212-0.892,1.694,1.694,0,0,0-.212-0.849L194.341,24.933h8.466l7.62,14.719,6.35-14.719H220.9C220.98,30.814,220.985,30.213,220.97,33.959Zm-28.453-9.026,3.251,5.6H193.9a2.328,2.328,0,0,0-1.314.392,2.879,2.879,0,0,0-.762.851l-4.021,7.464,8.255,14.72h-8.044L181.456,42.14h-3.81V53.958h-7.62V24.933h7.62v11.4h3.81l4.233-7.879A9,9,0,0,1,188,25.615a4.747,4.747,0,0,1,1.731-.863A4.558,4.558,0,0,1,192.517,24.933Z" transform="translate(-170.031 -24.625)"/>
</svg>
