<svg xmlns="http://www.w3.org/2000/svg" width="14" height="14" viewBox="0 0 14 14">
  <defs>
    <style>
      .cls-1 {
        fill-rule: evenodd;
      }
    </style>
  </defs>
  <path class="cls-1" d="M188.644,2098.69a5.683,5.683,0,0,1,8.045-8.03,5.569,5.569,0,0,1,.856,6.86,0.231,0.231,0,0,0,.033.28c0.726,0.73,2.9,2.9,2.9,2.9a1.317,1.317,0,0,1,.2,1.89l-0.088.09a1.325,1.325,0,0,1-1.9-.2s-2.173-2.17-2.9-2.89a0.233,0.233,0,0,0-.291-0.04A5.583,5.583,0,0,1,188.644,2098.69Zm7-1.04a4.2,4.2,0,1,0-5.945,0A4.2,4.2,0,0,0,195.639,2097.65Z" transform="translate(-187 -2089)"/>
</svg>
