<svg xmlns="http://www.w3.org/2000/svg" width="15" height="14" viewBox="0 0 15 14">
  <defs>
    <style>
      .cls-1 {
        fill-rule: evenodd;
      }
    </style>
  </defs>
  <path id="Rounded_Rectangle_2_copy_11" data-name="Rounded Rectangle 2 copy 11" class="cls-1" d="M158,2089h13a1,1,0,0,1,1,1v0.25a1,1,0,0,1-1,1H158a1,1,0,0,1-1-1V2090A1,1,0,0,1,158,2089Zm0,5.87h13a1,1,0,0,1,1,1v0.25a1,1,0,0,1-1,1H158a1,1,0,0,1-1-1v-0.25A1,1,0,0,1,158,2094.87Zm0,5.88h13a1,1,0,0,1,1,1V2102a1,1,0,0,1-1,1H158a1,1,0,0,1-1-1v-0.25A1,1,0,0,1,158,2100.75Z" transform="translate(-157 -2089)"/>
</svg>
