<?xml version="1.0" encoding="utf-8"?>
<!-- Generator: Adobe Illustrator 23.0.1, SVG Export Plug-In . SVG Version: 6.00 Build 0)  -->
<svg version="1.1"
	 id="svg2" inkscape:version="0.92.4 (5da689c313, 2019-01-14)" sodipodi:docname="Huawei AppGallery.svg" xmlns:cc="http://creativecommons.org/ns#" xmlns:dc="http://purl.org/dc/elements/1.1/" xmlns:inkscape="http://www.inkscape.org/namespaces/inkscape" xmlns:rdf="http://www.w3.org/1999/02/22-rdf-syntax-ns#" xmlns:sodipodi="http://sodipodi.sourceforge.net/DTD/sodipodi-0.dtd" xmlns:svg="http://www.w3.org/2000/svg"
	 xmlns="http://www.w3.org/2000/svg" xmlns:xlink="http://www.w3.org/1999/xlink" x="0px" y="0px" viewBox="0 0 100 100"
	 style="enable-background:new 0 0 100 100;" xml:space="preserve">
<style type="text/css">
	.st0{fill:#FFFFFF;}
</style>
<title  id="title854">Huawei AppGallery</title>
<sodipodi:namedview  bordercolor="#666666" borderopacity="1.0" gridtolerance="1" guidetolerance="1" id="base" inkscape:current-layer="svg2" inkscape:cx="49.440764" inkscape:cy="60.131139" inkscape:pageopacity="0" inkscape:pageshadow="2" inkscape:showpageshadow="false" inkscape:window-height="705" inkscape:window-maximized="1" inkscape:window-width="1366" inkscape:window-x="-8" inkscape:window-y="-8" inkscape:zoom="3.8047958" objecttolerance="1" pagecolor="#ffffff" showgrid="false" showguides="false" units="px">
	</sodipodi:namedview>
<g transform="translate(0,-1061)">
</g>
<g transform="matrix(0.74035173,0,0,0.75447038,-840.95699,-747.15387)">
</g>
<path class="st0" d="M47.4,56.8l-1.9-4.3l-1.9,4.3l-0.1,0.3h4L47.4,56.8z M47.4,56.8l-1.9-4.3l-1.9,4.3l-0.1,0.3h4L47.4,56.8z
	 M47.4,56.8l-1.9-4.3l-1.9,4.3l-0.1,0.3h4L47.4,56.8z M47.4,56.8l-1.9-4.3l-1.9,4.3l-0.1,0.3h4L47.4,56.8z M47.4,56.8l-1.9-4.3
	l-1.9,4.3l-0.1,0.3h4L47.4,56.8z M47.4,56.8l-1.9-4.3l-1.9,4.3l-0.1,0.3h4L47.4,56.8z M47.4,56.8l-1.9-4.3l-1.9,4.3l-0.1,0.3h4
	L47.4,56.8z M47.4,56.8l-1.9-4.3l-1.9,4.3l-0.1,0.3h4L47.4,56.8z M78.3,0.5H22c-11.8,0-21.3,9.5-21.3,21.3v56.3
	C0.7,90,10.2,99.5,22,99.5h56.3c11.8,0,21.3-9.6,21.3-21.3V21.8C99.7,10.1,90.1,0.5,78.3,0.5z M22.2,62.2h-2.7v-5.3h-6v5.3h-2.7v-13
	h2.7v5.2h6v-5.2h2.7V62.2z M22,9.8C22,8.3,23.3,7,24.8,7c0,0,0,0,0,0c1.5,0,2.8,1.3,2.8,2.8c0,0.7-0.3,1.4-0.7,1.9
	c5.5,7.7,13.8,12.1,23,12.1c9.2,0,17.6-4.5,23.1-12.3c-0.4-0.5-0.6-1.1-0.6-1.7c0-1.5,1.3-2.8,2.8-2.8c0,0,0,0,0,0
	C76.8,7,78,8.3,78,9.8c0,1.6-1.3,2.8-2.8,2.8h-0.1c-5.4,9-14.7,13.5-25.2,13.6c-10.5,0-19.7-4.5-25.2-13.6C23.2,12.6,22,11.3,22,9.8
	z M37.2,56.5c0,3.7-2.1,5.8-5.7,5.8c-3.6,0-5.7-2.1-5.7-5.7v-7.4h2.7v7.3c0,2.2,1.1,3.3,3,3.3s3-1.1,3-3.2v-7.4h2.7V56.5z
	 M49.7,62.2l-1.2-2.7h-6l-0.1,0.2l-1.1,2.5h-2.7l5.8-13h2.3l0,0.1l5.8,12.9H49.7z M66.6,62.2h-2.2l-3-8.5l-3,8.5h-2.2l-4.6-13h2.8
	l2.9,8.9l3-8.9h2.2l3,8.9l2.9-8.9h2.8L66.6,62.2z M83.3,62.2h-10V49.2H83v2.4H76v2.7h4.9v2.4H76v3.2h7.3V62.2z M89.1,62.2h-2.6V49.2
	h2.6V62.2z M43.7,56.8l-0.1,0.3h4l-0.1-0.3l-1.9-4.3L43.7,56.8z M47.4,56.8l-1.9-4.3l-1.9,4.3l-0.1,0.3h4L47.4,56.8z M47.4,56.8
	l-1.9-4.3l-1.9,4.3l-0.1,0.3h4L47.4,56.8z M47.4,56.8l-1.9-4.3l-1.9,4.3l-0.1,0.3h4L47.4,56.8z M47.4,56.8l-1.9-4.3l-1.9,4.3
	l-0.1,0.3h4L47.4,56.8z M47.4,56.8l-1.9-4.3l-1.9,4.3l-0.1,0.3h4L47.4,56.8z M47.4,56.8l-1.9-4.3l-1.9,4.3l-0.1,0.3h4L47.4,56.8z
	 M47.4,56.8l-1.9-4.3l-1.9,4.3l-0.1,0.3h4L47.4,56.8z M47.4,56.8l-1.9-4.3l-1.9,4.3l-0.1,0.3h4L47.4,56.8z"/>
</svg>
